<?xml version="1.0" encoding="UTF-8" standalone="no"?>
<svg width="259px" height="453px" viewBox="0 0 259 453" version="1.1" xmlns="http://www.w3.org/2000/svg" xmlns:xlink="http://www.w3.org/1999/xlink" xmlns:sketch="http://www.bohemiancoding.com/sketch/ns">
    <!-- Generator: Sketch 3.0.1 (7597) - http://www.bohemiancoding.com/sketch -->
    <title>Untitled</title>
    <description>Created with Sketch.</description>
    <defs></defs>
    <g id="Page-1" stroke="none" stroke-width="1" sketch:type="MSPage">
        <g id="arrow-r-2" sketch:type="MSLayerGroup" transform="translate(129.000000, 227.000000) rotate(-180.000000) translate(-129.000000, -227.000000) translate(0.000000, 1.000000)">
            <path d="M248.441,248.292 L54.154,442.573 C41.795,454.938 21.757,454.938 9.404,442.573 C-2.95,430.219 -2.95,410.182 9.404,397.829 L181.318,225.92 L9.409,54.017 C-2.945,41.658 -2.945,21.623 9.409,9.269 C21.763,-3.09 41.8,-3.09 54.159,9.269 L248.446,203.553 C254.623,209.733 257.708,217.824 257.708,225.919 C257.708,234.018 254.617,242.115 248.441,248.292 L248.441,248.292 Z" id="Shape" sketch:type="MSShapeGroup"></path>
        </g>
    </g>
</svg>